…
A manera de ejemplo vamos a trabajar con diferentes bases de datos para
aprender a utilizar las principales funciones del paquete “dplyr”.
Cargamos la base de datos de “starwars”

``` r
data("starwars")

starwars
```

    ## # A tibble: 87 x 14
    ##    name  height  mass hair_color skin_color eye_color birth_year sex   gender
    ##    <chr>  <int> <dbl> <chr>      <chr>      <chr>          <dbl> <chr> <chr> 
    ##  1 Luke~    172    77 blond      fair       blue            19   male  mascu~
    ##  2 C-3PO    167    75 <NA>       gold       yellow         112   none  mascu~
    ##  3 R2-D2     96    32 <NA>       white, bl~ red             33   none  mascu~
    ##  4 Dart~    202   136 none       white      yellow          41.9 male  mascu~
    ##  5 Leia~    150    49 brown      light      brown           19   fema~ femin~
    ##  6 Owen~    178   120 brown, gr~ light      blue            52   male  mascu~
    ##  7 Beru~    165    75 brown      light      blue            47   fema~ femin~
    ##  8 R5-D4     97    32 <NA>       white, red red             NA   none  mascu~
    ##  9 Bigg~    183    84 black      light      brown           24   male  mascu~
    ## 10 Obi-~    182    77 auburn, w~ fair       blue-gray       57   male  mascu~
    ## # ... with 77 more rows, and 5 more variables: homeworld <chr>, species <chr>,
    ## #   films <list>, vehicles <list>, starships <list>
…
Vamos a trabajar asi para los siguientes ejercicios.

Si queremos filtrar los personajes con color de ojos azules y amarillos

``` r
dplyr::filter(starwars, eye_color == "blue" | eye_color == "yellow")
```

    ## # A tibble: 30 x 14
    ##    name  height  mass hair_color skin_color eye_color birth_year sex   gender
    ##    <chr>  <int> <dbl> <chr>      <chr>      <chr>          <dbl> <chr> <chr> 
    ##  1 Luke~    172    77 blond      fair       blue            19   male  mascu~
    ##  2 C-3PO    167    75 <NA>       gold       yellow         112   none  mascu~
    ##  3 Dart~    202   136 none       white      yellow          41.9 male  mascu~
    ##  4 Owen~    178   120 brown, gr~ light      blue            52   male  mascu~
    ##  5 Beru~    165    75 brown      light      blue            47   fema~ femin~
    ##  6 Anak~    188    84 blond      fair       blue            41.9 male  mascu~
    ##  7 Wilh~    180    NA auburn, g~ fair       blue            64   male  mascu~
    ##  8 Chew~    228   112 brown      unknown    blue           200   male  mascu~
    ##  9 Jek ~    180   110 brown      fair       blue            NA   male  mascu~
    ## 10 Palp~    170    75 grey       pale       yellow          82   male  mascu~
    ## # ... with 20 more rows, and 5 more variables: homeworld <chr>, species <chr>,
    ## #   films <list>, vehicles <list>, starships <list>

Si lo intentaramos de la siguiente manera…

dplyr::filter(starwars, eye\_color == “blue” \| “yellow”)

…No funcionaria, ya que el lenguaje de progración R no esta diseñado de
esta manera. Para esos casos se utiliza el operador %in%, y se debe
agrupar los colores de colores que queramos filtrar en un vector:

``` r
dplyr::filter(starwars, eye_color %in% c("blue","yellow"))
```

    ## # A tibble: 30 x 14
    ##    name  height  mass hair_color skin_color eye_color birth_year sex   gender
    ##    <chr>  <int> <dbl> <chr>      <chr>      <chr>          <dbl> <chr> <chr> 
    ##  1 Luke~    172    77 blond      fair       blue            19   male  mascu~
    ##  2 C-3PO    167    75 <NA>       gold       yellow         112   none  mascu~
    ##  3 Dart~    202   136 none       white      yellow          41.9 male  mascu~
    ##  4 Owen~    178   120 brown, gr~ light      blue            52   male  mascu~
    ##  5 Beru~    165    75 brown      light      blue            47   fema~ femin~
    ##  6 Anak~    188    84 blond      fair       blue            41.9 male  mascu~
    ##  7 Wilh~    180    NA auburn, g~ fair       blue            64   male  mascu~
    ##  8 Chew~    228   112 brown      unknown    blue           200   male  mascu~
    ##  9 Jek ~    180   110 brown      fair       blue            NA   male  mascu~
    ## 10 Palp~    170    75 grey       pale       yellow          82   male  mascu~
    ## # ... with 20 more rows, and 5 more variables: homeworld <chr>, species <chr>,
    ## #   films <list>, vehicles <list>, starships <list>

El operador %in% es muy utilizado cuando queremos incluir varias
categorias de una variable en una linea de codigo simple. Si quisieramos
filtrar mas de dos colores de ojos

``` r
filter(starwars, eye_color %in% c("blue","yellow","red"))
```

    ## # A tibble: 35 x 14
    ##    name  height  mass hair_color skin_color eye_color birth_year sex   gender
    ##    <chr>  <int> <dbl> <chr>      <chr>      <chr>          <dbl> <chr> <chr> 
    ##  1 Luke~    172    77 blond      fair       blue            19   male  mascu~
    ##  2 C-3PO    167    75 <NA>       gold       yellow         112   none  mascu~
    ##  3 R2-D2     96    32 <NA>       white, bl~ red             33   none  mascu~
    ##  4 Dart~    202   136 none       white      yellow          41.9 male  mascu~
    ##  5 Owen~    178   120 brown, gr~ light      blue            52   male  mascu~
    ##  6 Beru~    165    75 brown      light      blue            47   fema~ femin~
    ##  7 R5-D4     97    32 <NA>       white, red red             NA   none  mascu~
    ##  8 Anak~    188    84 blond      fair       blue            41.9 male  mascu~
    ##  9 Wilh~    180    NA auburn, g~ fair       blue            64   male  mascu~
    ## 10 Chew~    228   112 brown      unknown    blue           200   male  mascu~
    ## # ... with 25 more rows, and 5 more variables: homeworld <chr>, species <chr>,
    ## #   films <list>, vehicles <list>, starships <list>

### 1.2 Filtrando variables cuantitativas

Las variables cuantitativas nos permiten hacer filtrados mas avanzados
ya que nos permiten jugar con los valores **mayores** y **menores**. Por
ejemplo, si quieremos filtrar a todos los personajes con un peso
corporal mayor a 80 kilogramos:

``` r
filter(starwars, mass > 80)
```

    ## # A tibble: 21 x 14
    ##    name  height  mass hair_color skin_color eye_color birth_year sex   gender
    ##    <chr>  <int> <dbl> <chr>      <chr>      <chr>          <dbl> <chr> <chr> 
    ##  1 Dart~    202   136 none       white      yellow          41.9 male  mascu~
    ##  2 Owen~    178   120 brown, gr~ light      blue            52   male  mascu~
    ##  3 Bigg~    183    84 black      light      brown           24   male  mascu~
    ##  4 Anak~    188    84 blond      fair       blue            41.9 male  mascu~
    ##  5 Chew~    228   112 brown      unknown    blue           200   male  mascu~
    ##  6 Jabb~    175  1358 <NA>       green-tan~ orange         600   herm~ mascu~
    ##  7 Jek ~    180   110 brown      fair       blue            NA   male  mascu~
    ##  8 IG-88    200   140 none       metal      red             15   none  mascu~
    ##  9 Bossk    190   113 none       green      red             53   male  mascu~
    ## 10 Ackb~    180    83 none       brown mot~ orange          41   male  mascu~
    ## # ... with 11 more rows, and 5 more variables: homeworld <chr>, species <chr>,
    ## #   films <list>, vehicles <list>, starships <list>
…
