…
A manera de ejemplo vamos a trabajar con diferentes bases de datos para
aprender a utilizar las principales funciones del paquete “dplyr”.
Cargamos la base de datos de “starwars”

``` r
data("starwars")

starwars
```

    ## # A tibble: 87 × 14
    ##    name     height  mass hair_color skin_color eye_color birth_year sex   gender
    ##    <chr>     <int> <dbl> <chr>      <chr>      <chr>          <dbl> <chr> <chr> 
    ##  1 Luke Sk…    172    77 blond      fair       blue            19   male  mascu…
    ##  2 C-3PO       167    75 <NA>       gold       yellow         112   none  mascu…
    ##  3 R2-D2        96    32 <NA>       white, bl… red             33   none  mascu…
    ##  4 Darth V…    202   136 none       white      yellow          41.9 male  mascu…
    ##  5 Leia Or…    150    49 brown      light      brown           19   fema… femin…
    ##  6 Owen La…    178   120 brown, gr… light      blue            52   male  mascu…
    ##  7 Beru Wh…    165    75 brown      light      blue            47   fema… femin…
    ##  8 R5-D4        97    32 <NA>       white, red red             NA   none  mascu…
    ##  9 Biggs D…    183    84 black      light      brown           24   male  mascu…
    ## 10 Obi-Wan…    182    77 auburn, w… fair       blue-gray       57   male  mascu…
    ## # ℹ 77 more rows
    ## # ℹ 5 more variables: homeworld <chr>, species <chr>, films <list>,
    ## #   vehicles <list>, starships <list>
…
Vamos a trabajar así para los siguientes ejercicios.

Si queremos filtrar los personajes con color de ojos azules y amarillos

``` r
dplyr::filter(starwars, eye_color == "blue" | eye_color == "yellow")
```

    ## # A tibble: 30 × 14
    ##    name     height  mass hair_color skin_color eye_color birth_year sex   gender
    ##    <chr>     <int> <dbl> <chr>      <chr>      <chr>          <dbl> <chr> <chr> 
    ##  1 Luke Sk…    172    77 blond      fair       blue            19   male  mascu…
    ##  2 C-3PO       167    75 <NA>       gold       yellow         112   none  mascu…
    ##  3 Darth V…    202   136 none       white      yellow          41.9 male  mascu…
    ##  4 Owen La…    178   120 brown, gr… light      blue            52   male  mascu…
    ##  5 Beru Wh…    165    75 brown      light      blue            47   fema… femin…
    ##  6 Anakin …    188    84 blond      fair       blue            41.9 male  mascu…
    ##  7 Wilhuff…    180    NA auburn, g… fair       blue            64   male  mascu…
    ##  8 Chewbac…    228   112 brown      unknown    blue           200   male  mascu…
    ##  9 Jek Ton…    180   110 brown      fair       blue            NA   male  mascu…
    ## 10 Palpati…    170    75 grey       pale       yellow          82   male  mascu…
    ## # ℹ 20 more rows
    ## # ℹ 5 more variables: homeworld <chr>, species <chr>, films <list>,
    ## #   vehicles <list>, starships <list>

Si lo intentáramos de la siguiente manera…

dplyr::filter(starwars, eye_color == “blue” \| “yellow”)

…No funcionaria, ya que el lenguaje de programación R no esta diseñado
de esta manera. Para esos casos se utiliza el operador %in%, y se debe
agrupar los colores de colores que queramos filtrar en un vector:

``` r
dplyr::filter(starwars, eye_color %in% c("blue","yellow"))
```

    ## # A tibble: 30 × 14
    ##    name     height  mass hair_color skin_color eye_color birth_year sex   gender
    ##    <chr>     <int> <dbl> <chr>      <chr>      <chr>          <dbl> <chr> <chr> 
    ##  1 Luke Sk…    172    77 blond      fair       blue            19   male  mascu…
    ##  2 C-3PO       167    75 <NA>       gold       yellow         112   none  mascu…
    ##  3 Darth V…    202   136 none       white      yellow          41.9 male  mascu…
    ##  4 Owen La…    178   120 brown, gr… light      blue            52   male  mascu…
    ##  5 Beru Wh…    165    75 brown      light      blue            47   fema… femin…
    ##  6 Anakin …    188    84 blond      fair       blue            41.9 male  mascu…
    ##  7 Wilhuff…    180    NA auburn, g… fair       blue            64   male  mascu…
    ##  8 Chewbac…    228   112 brown      unknown    blue           200   male  mascu…
    ##  9 Jek Ton…    180   110 brown      fair       blue            NA   male  mascu…
    ## 10 Palpati…    170    75 grey       pale       yellow          82   male  mascu…
    ## # ℹ 20 more rows
    ## # ℹ 5 more variables: homeworld <chr>, species <chr>, films <list>,
    ## #   vehicles <list>, starships <list>

El operador %in% es muy utilizado cuando queremos incluir varias
categorías de una variable en una linea de código simple. Si quisiéramos
filtrar mas de dos colores de ojos

``` r
filter(starwars, eye_color %in% c("blue","yellow","red"))
```

    ## # A tibble: 35 × 14
    ##    name     height  mass hair_color skin_color eye_color birth_year sex   gender
    ##    <chr>     <int> <dbl> <chr>      <chr>      <chr>          <dbl> <chr> <chr> 
    ##  1 Luke Sk…    172    77 blond      fair       blue            19   male  mascu…
    ##  2 C-3PO       167    75 <NA>       gold       yellow         112   none  mascu…
    ##  3 R2-D2        96    32 <NA>       white, bl… red             33   none  mascu…
    ##  4 Darth V…    202   136 none       white      yellow          41.9 male  mascu…
    ##  5 Owen La…    178   120 brown, gr… light      blue            52   male  mascu…
    ##  6 Beru Wh…    165    75 brown      light      blue            47   fema… femin…
    ##  7 R5-D4        97    32 <NA>       white, red red             NA   none  mascu…
    ##  8 Anakin …    188    84 blond      fair       blue            41.9 male  mascu…
    ##  9 Wilhuff…    180    NA auburn, g… fair       blue            64   male  mascu…
    ## 10 Chewbac…    228   112 brown      unknown    blue           200   male  mascu…
    ## # ℹ 25 more rows
    ## # ℹ 5 more variables: homeworld <chr>, species <chr>, films <list>,
    ## #   vehicles <list>, starships <list>

### 1.2 Filtrando variables cuantitativas

Las variables cuantitativas nos permiten hacer filtrados mas avanzados
ya que nos permiten jugar con los valores **mayores** y **menores**. Por
ejemplo, si quisiéramos filtrar a todos los personajes con un peso
corporal mayor a 80 kilogramos:

``` r
filter(starwars, mass > 80)
```

    ## # A tibble: 21 × 14
    ##    name     height  mass hair_color skin_color eye_color birth_year sex   gender
    ##    <chr>     <int> <dbl> <chr>      <chr>      <chr>          <dbl> <chr> <chr> 
    ##  1 Darth V…    202   136 none       white      yellow          41.9 male  mascu…
    ##  2 Owen La…    178   120 brown, gr… light      blue            52   male  mascu…
    ##  3 Biggs D…    183    84 black      light      brown           24   male  mascu…
    ##  4 Anakin …    188    84 blond      fair       blue            41.9 male  mascu…
    ##  5 Chewbac…    228   112 brown      unknown    blue           200   male  mascu…
    ##  6 Jabba D…    175  1358 <NA>       green-tan… orange         600   herm… mascu…
    ##  7 Jek Ton…    180   110 brown      fair       blue            NA   male  mascu…
    ##  8 IG-88       200   140 none       metal      red             15   none  mascu…
    ##  9 Bossk       190   113 none       green      red             53   male  mascu…
    ## 10 Ackbar      180    83 none       brown mot… orange          41   male  mascu…
    ## # ℹ 11 more rows
    ## # ℹ 5 more variables: homeworld <chr>, species <chr>, films <list>,
    ## #   vehicles <list>, starships <list>
…
## 2. Función arrange()

La función arrange() del paquete dplyr nos ayuda a ordenar nuestra base
de datos en orden alfabético o por valores de números (del mayor al
menor o viceversa).

### 2.1 Arreglando variables cualitativas

Para ordenar por ejemplo a los personajes por el color de sus ojos:

``` r
dplyr::arrange(starwars, eye_color)
```

    ## # A tibble: 87 × 14
    ##    name     height  mass hair_color skin_color eye_color birth_year sex   gender
    ##    <chr>     <int> <dbl> <chr>      <chr>      <chr>          <dbl> <chr> <chr> 
    ##  1 Greedo      173    74 <NA>       green      black             44 male  mascu…
    ##  2 Nien Nu…    160    68 none       grey       black             NA male  mascu…
    ##  3 Gasgano     122    NA none       white, bl… black             NA male  mascu…
    ##  4 Kit Fis…    196    87 none       green      black             NA male  mascu…
    ##  5 Plo Koon    188    80 none       orange     black             22 male  mascu…
    ##  6 Lama Su     229    88 none       grey       black             NA male  mascu…
    ##  7 Taun We     213    NA none       grey       black             NA fema… femin…
    ##  8 Shaak Ti    178    57 none       red, blue… black             NA fema… femin…
    ##  9 Tion Me…    206    80 none       grey       black             NA male  mascu…
    ## 10 BB8          NA    NA none       none       black             NA none  mascu…
    ## # ℹ 77 more rows
    ## # ℹ 5 more variables: homeworld <chr>, species <chr>, films <list>,
    ## #   vehicles <list>, starships <list>

Arregla la base de datos de acuerdo al color de ojos y en función del
orden del alfabeto. Adicionalmente, podemos colocar mas de una sola
variable, para que nos ordene no solo por el color de ojos, sino también
por el genero de cada personaje (siempre hay que separar las variables
por una “,”).

``` r
dplyr::arrange(starwars, eye_color, gender)
```

    ## # A tibble: 87 × 14
    ##    name     height  mass hair_color skin_color eye_color birth_year sex   gender
    ##    <chr>     <int> <dbl> <chr>      <chr>      <chr>          <dbl> <chr> <chr> 
    ##  1 Taun We     213    NA none       grey       black             NA fema… femin…
    ##  2 Shaak Ti    178    57 none       red, blue… black             NA fema… femin…
    ##  3 Greedo      173    74 <NA>       green      black             44 male  mascu…
    ##  4 Nien Nu…    160    68 none       grey       black             NA male  mascu…
    ##  5 Gasgano     122    NA none       white, bl… black             NA male  mascu…
    ##  6 Kit Fis…    196    87 none       green      black             NA male  mascu…
    ##  7 Plo Koon    188    80 none       orange     black             22 male  mascu…
    ##  8 Lama Su     229    88 none       grey       black             NA male  mascu…
    ##  9 Tion Me…    206    80 none       grey       black             NA male  mascu…
    ## 10 BB8          NA    NA none       none       black             NA none  mascu…
    ## # ℹ 77 more rows
    ## # ℹ 5 more variables: homeworld <chr>, species <chr>, films <list>,
    ## #   vehicles <list>, starships <list>

Sin embargo, realizar arreglos de varias variables al mismo tiempo puede
resultar algo confuso de interpretar. Siempre la primera variable que
pongamos prevalecerá en jerarquía.

### 2.2 Arreglando variables cuantitativas

Para ordenar por ejemplo a los personajes de starwars por su peso
corporal utilizamos el siguiente código:

``` r
dplyr::arrange(starwars, mass)
```

    ## # A tibble: 87 × 14
    ##    name     height  mass hair_color skin_color eye_color birth_year sex   gender
    ##    <chr>     <int> <dbl> <chr>      <chr>      <chr>          <dbl> <chr> <chr> 
    ##  1 Ratts T…     79    15 none       grey, blue unknown           NA male  mascu…
    ##  2 Yoda         66    17 white      green      brown            896 male  mascu…
    ##  3 Wicket …     88    20 brown      brown      brown              8 male  mascu…
    ##  4 R2-D2        96    32 <NA>       white, bl… red               33 none  mascu…
    ##  5 R5-D4        97    32 <NA>       white, red red               NA none  mascu…
    ##  6 Sebulba     112    40 none       grey, red  orange            NA male  mascu…
    ##  7 Dud Bolt     94    45 none       blue, grey yellow            NA male  mascu…
    ##  8 Padmé A…    165    45 brown      light      brown             46 fema… femin…
    ##  9 Wat Tam…    193    48 none       green, gr… unknown           NA male  mascu…
    ## 10 Sly Moo…    178    48 none       pale       white             NA <NA>  <NA>  
    ## # ℹ 77 more rows
    ## # ℹ 5 more variables: homeworld <chr>, species <chr>, films <list>,
    ## #   vehicles <list>, starships <list>

Esto automáticamente podemos observar que coloca a todos los personajes
del mas liviano al mas pesado. Si quisiéramos el efecto contrario
utilizaríamos dentro del argumento la función desc():

``` r
dplyr::arrange(starwars, desc(mass))
```

    ## # A tibble: 87 × 14
    ##    name     height  mass hair_color skin_color eye_color birth_year sex   gender
    ##    <chr>     <int> <dbl> <chr>      <chr>      <chr>          <dbl> <chr> <chr> 
    ##  1 Jabba D…    175  1358 <NA>       green-tan… orange         600   herm… mascu…
    ##  2 Grievous    216   159 none       brown, wh… green, y…       NA   male  mascu…
    ##  3 IG-88       200   140 none       metal      red             15   none  mascu…
    ##  4 Darth V…    202   136 none       white      yellow          41.9 male  mascu…
    ##  5 Tarfful     234   136 brown      brown      blue            NA   male  mascu…
    ##  6 Owen La…    178   120 brown, gr… light      blue            52   male  mascu…
    ##  7 Bossk       190   113 none       green      red             53   male  mascu…
    ##  8 Chewbac…    228   112 brown      unknown    blue           200   male  mascu…
    ##  9 Jek Ton…    180   110 brown      fair       blue            NA   male  mascu…
    ## 10 Dexter …    198   102 none       brown      yellow          NA   male  mascu…
    ## # ℹ 77 more rows
    ## # ℹ 5 more variables: homeworld <chr>, species <chr>, films <list>,
    ## #   vehicles <list>, starships <list>
…
De igual manera que las otras funciones, para utilizarla solo la
escribimos, colocamos el nombre de la base de datos que estamos
estudiando (siempre en la primera posición), para luego escribir el
nombre de la variable que queramos seleccionar. Por ejemplo, si queremos
solo seleccionar el nombre del personaje y el color de sus ojos, seria
de la siguiente manera:

``` r
dplyr::select(starwars, name, eye_color)
```

    ## # A tibble: 87 × 2
    ##    name               eye_color
    ##    <chr>              <chr>    
    ##  1 Luke Skywalker     blue     
    ##  2 C-3PO              yellow   
    ##  3 R2-D2              red      
    ##  4 Darth Vader        yellow   
    ##  5 Leia Organa        brown    
    ##  6 Owen Lars          blue     
    ##  7 Beru Whitesun lars blue     
    ##  8 R5-D4              red      
    ##  9 Biggs Darklighter  brown    
    ## 10 Obi-Wan Kenobi     blue-gray
    ## # ℹ 77 more rows

Podemos seleccionar cuantas columnas(variables queramos).Ejemplo:

``` r
dplyr::select(starwars, name, eye_color, mass, height, hair_color)
```

    ## # A tibble: 87 × 5
    ##    name               eye_color  mass height hair_color   
    ##    <chr>              <chr>     <dbl>  <int> <chr>        
    ##  1 Luke Skywalker     blue         77    172 blond        
    ##  2 C-3PO              yellow       75    167 <NA>         
    ##  3 R2-D2              red          32     96 <NA>         
    ##  4 Darth Vader        yellow      136    202 none         
    ##  5 Leia Organa        brown        49    150 brown        
    ##  6 Owen Lars          blue        120    178 brown, grey  
    ##  7 Beru Whitesun lars blue         75    165 brown        
    ##  8 R5-D4              red          32     97 <NA>         
    ##  9 Biggs Darklighter  brown        84    183 black        
    ## 10 Obi-Wan Kenobi     blue-gray    77    182 auburn, white
    ## # ℹ 77 more rows

Nota: Es importante notas que podemos aprovechar para cambiar el orden
en la que queremos que aparezcan las columnas, eso lo definirá en
relación al orden que le demos al escribir el código. Por ejemplo, si
cambiamos el orden en el código anterior, obtendremos un resultado
diferente:

``` r
dplyr::select(starwars, eye_color, height, hair_color, name, mass)
```

    ## # A tibble: 87 × 5
    ##    eye_color height hair_color    name                mass
    ##    <chr>      <int> <chr>         <chr>              <dbl>
    ##  1 blue         172 blond         Luke Skywalker        77
    ##  2 yellow       167 <NA>          C-3PO                 75
    ##  3 red           96 <NA>          R2-D2                 32
    ##  4 yellow       202 none          Darth Vader          136
    ##  5 brown        150 brown         Leia Organa           49
    ##  6 blue         178 brown, grey   Owen Lars            120
    ##  7 blue         165 brown         Beru Whitesun lars    75
    ##  8 red           97 <NA>          R5-D4                 32
    ##  9 brown        183 black         Biggs Darklighter     84
    ## 10 blue-gray    182 auburn, white Obi-Wan Kenobi        77
    ## # ℹ 77 more rows
…
``` r
dplyr::mutate(starwars, CMA = mass/height)
```

    ## # A tibble: 87 × 15
    ##    name     height  mass hair_color skin_color eye_color birth_year sex   gender
    ##    <chr>     <int> <dbl> <chr>      <chr>      <chr>          <dbl> <chr> <chr> 
    ##  1 Luke Sk…    172    77 blond      fair       blue            19   male  mascu…
    ##  2 C-3PO       167    75 <NA>       gold       yellow         112   none  mascu…
    ##  3 R2-D2        96    32 <NA>       white, bl… red             33   none  mascu…
    ##  4 Darth V…    202   136 none       white      yellow          41.9 male  mascu…
    ##  5 Leia Or…    150    49 brown      light      brown           19   fema… femin…
    ##  6 Owen La…    178   120 brown, gr… light      blue            52   male  mascu…
    ##  7 Beru Wh…    165    75 brown      light      blue            47   fema… femin…
    ##  8 R5-D4        97    32 <NA>       white, red red             NA   none  mascu…
    ##  9 Biggs D…    183    84 black      light      brown           24   male  mascu…
    ## 10 Obi-Wan…    182    77 auburn, w… fair       blue-gray       57   male  mascu…
    ## # ℹ 77 more rows
    ## # ℹ 6 more variables: homeworld <chr>, species <chr>, films <list>,
    ## #   vehicles <list>, starships <list>, CMA <dbl>
…
Esta función es muy útil para calcular valores de interés que pueden
calcularse a partir de los valores de nuestra base de estudio original.
La función mutate() tiene una función muy cercana llamada transmute().
Esta función realiza lo mismo que mutate() pero elimina todas las demás
variables del resultado final, quedándose solo con aquellas que le
indicamos.

``` r
dplyr::transmute(starwars, name = name, CMA = mass/height)
```

    ## # A tibble: 87 × 2
    ##    name                 CMA
    ##    <chr>              <dbl>
    ##  1 Luke Skywalker     0.448
    ##  2 C-3PO              0.449
    ##  3 R2-D2              0.333
    ##  4 Darth Vader        0.673
    ##  5 Leia Organa        0.327
    ##  6 Owen Lars          0.674
    ##  7 Beru Whitesun lars 0.455
    ##  8 R5-D4              0.330
    ##  9 Biggs Darklighter  0.459
    ## 10 Obi-Wan Kenobi     0.423
    ## # ℹ 77 more rows
…
